Blog
…
Suppose we were interested in finding the destination for the longest United Airlines flight from JFK.

First let’s select the columns of interest

flights%>%
  select(carrier, origin, dest, air_time)

## # A tibble: 336,776 x 4
##    carrier origin dest  air_time
##    <chr>   <chr>  <chr>    <dbl>
##  1 UA      EWR    IAH        227
##  2 UA      LGA    IAH        227
##  3 AA      JFK    MIA        160
##  4 B6      JFK    BQN        183
##  5 DL      LGA    ATL        116
##  6 UA      EWR    ORD        150
##  7 B6      EWR    FLL        158
##  8 EV      LGA    IAD         53
##  9 B6      JFK    MCO        140
## 10 AA      LGA    ORD        138
## # … with 336,766 more rows

Now let’s look only at United Airlines flights

flights%>%
  select(carrier, origin, dest, air_time)%>%
  filter(carrier == "UA")

## # A tibble: 58,665 x 4
##    carrier origin dest  air_time
##    <chr>   <chr>  <chr>    <dbl>
##  1 UA      EWR    IAH        227
##  2 UA      LGA    IAH        227
##  3 UA      EWR    ORD        150
##  4 UA      JFK    LAX        345
##  5 UA      EWR    SFO        361
##  6 UA      EWR    LAS        337
##  7 UA      EWR    MIA        157
##  8 UA      JFK    SFO        366
##  9 UA      LGA    IAH        229
## 10 UA      EWR    LAX        366
## # … with 58,655 more rows

Now let’s look only at United Airlines flights leaving from JFK

flights%>%
  select(carrier, origin, dest, air_time)%>%
  filter(carrier == "UA" & origin == "JFK")

## # A tibble: 4,534 x 4
##    carrier origin dest  air_time
##    <chr>   <chr>  <chr>    <dbl>
##  1 UA      JFK    LAX        345
##  2 UA      JFK    SFO        366
##  3 UA      JFK    SFO        369
##  4 UA      JFK    LAX        360
##  5 UA      JFK    SFO        364
##  6 UA      JFK    LAX        357
##  7 UA      JFK    SFO        362
##  8 UA      JFK    LAX        356
##  9 UA      JFK    SFO        347
## 10 UA      JFK    LAX        345
## # … with 4,524 more rows

Now let’s arrange the data by air time in descending order

flights%>%
  select(carrier, origin, dest, air_time)%>%
  filter(carrier == "UA" & origin == "JFK")%>%
  arrange(desc(air_time))

## # A tibble: 4,534 x 4
##    carrier origin dest  air_time
##    <chr>   <chr>  <chr>    <dbl>
##  1 UA      JFK    SFO        421
##  2 UA      JFK    SFO        411
##  3 UA      JFK    SFO        406
##  4 UA      JFK    SFO        405
##  5 UA      JFK    SFO        397
##  6 UA      JFK    SFO        397
##  7 UA      JFK    SFO        396
##  8 UA      JFK    SFO        396
##  9 UA      JFK    SFO        395
## 10 UA      JFK    SFO        394
## # … with 4,524 more rows
…
